<?xml version="1.0" encoding="UTF-8" standalone="no"?>
<!-- Generator: Adobe Illustrator 26.5.0, SVG Export Plug-In . SVG Version: 6.00 Build 0)  -->

<svg
   version="1.1"
   id="Calque_1"
   x="0px"
   y="0px"
   viewBox="0 0 800 75.2"
   style="enable-background:new 0 0 800 75.2;"
   xml:space="preserve"
   sodipodi:docname="emma_Emerald_installer.svg"
   inkscape:version="1.2.2 (b0a8486541, 2022-12-01)"
   xmlns:inkscape="http://www.inkscape.org/namespaces/inkscape"
   xmlns:sodipodi="http://sodipodi.sourceforge.net/DTD/sodipodi-0.dtd"
   xmlns:xlink="http://www.w3.org/1999/xlink"
   xmlns="http://www.w3.org/2000/svg"
   xmlns:svg="http://www.w3.org/2000/svg"><defs
   id="defs522">
	<defs
   id="defs339">
		<rect
   id="SVGID_1_"
   width="800"
   height="75" />
	</defs>
	<clipPath
   id="SVGID_00000081623338355527563770000002533362940068844987_">
		<use
   xlink:href="#SVGID_1_"
   style="overflow:visible;"
   id="use341" />
	</clipPath>
	
		
	
		<radialGradient
   id="SVGID_00000038405185503701051430000004349822176931472308_"
   cx="-2601.7632"
   cy="7031.8623"
   r="342.1"
   gradientTransform="matrix(-2.8317,2.4125,0.8042,0.9439,-12096.048,-399.5388)"
   gradientUnits="userSpaceOnUse">
		<stop
   offset="0"
   style="stop-color:#18F5B0"
   id="stop346" />
		<stop
   offset="1"
   style="stop-color:#05475C;stop-opacity:0"
   id="stop348" />
	</radialGradient>
	
		
	
		<radialGradient
   id="SVGID_00000102533721317829508000000017731438737069566599_"
   cx="6394.0698"
   cy="3677.4514"
   r="158.8"
   gradientTransform="matrix(0,0.5,0.5,0,-1102.3257,-3144.9351)"
   gradientUnits="userSpaceOnUse">
		<stop
   offset="0"
   style="stop-color:#DAC9BA"
   id="stop353" />
		<stop
   offset="1"
   style="stop-color:#05475C;stop-opacity:0"
   id="stop355" />
	</radialGradient>
	
		
	
		<linearGradient
   id="SVGID_00000090259190451313607400000017358106186077161397_"
   gradientUnits="userSpaceOnUse"
   x1="-1437.9543"
   y1="2186.9099"
   x2="-1382.3844"
   y2="2186.9099"
   gradientTransform="matrix(-0.8348,-1.1733,-1.0419,0.3814,1598.7482,-2412.2385)">
		<stop
   offset="0"
   style="stop-color:#18F5B0"
   id="stop360" />
		<stop
   offset="1"
   style="stop-color:#05475C;stop-opacity:0"
   id="stop362" />
	</linearGradient>
	
		
	
		<linearGradient
   id="SVGID_00000174580598149875607440000002879095366165991075_"
   gradientUnits="userSpaceOnUse"
   x1="-49.955"
   y1="2076.4495"
   x2="16.4151"
   y2="2076.4495"
   gradientTransform="matrix(-1.0472,-1.0739,-1.2032,0.6854,2997.8838,-1369.4878)">
		<stop
   offset="0"
   style="stop-color:#18F5B0"
   id="stop367" />
		<stop
   offset="1"
   style="stop-color:#05475C;stop-opacity:0"
   id="stop369" />
	</linearGradient>
	
		
	
		<linearGradient
   id="SVGID_00000099633733585330950970000000851255604092087176_"
   gradientUnits="userSpaceOnUse"
   x1="-1431.2449"
   y1="5634.8257"
   x2="-1327.7549"
   y2="5634.8257"
   gradientTransform="matrix(1.5948,0.1286,-0.0829276,-1.3912,3287.7202,7992.5571)">
		<stop
   offset="0"
   style="stop-color:#18F5B0"
   id="stop374" />
		<stop
   offset="1"
   style="stop-color:#05475C;stop-opacity:0"
   id="stop376" />
	</linearGradient>
	
		
	
		<linearGradient
   id="SVGID_00000001635249674185316710000016720107718524880030_"
   gradientUnits="userSpaceOnUse"
   x1="3616.2019"
   y1="1031.2928"
   x2="3800.1719"
   y2="1031.2928"
   gradientTransform="matrix(-0.341,0.3792,0.5609,0.9317,1481.2501,-2375.2625)">
		<stop
   offset="0"
   style="stop-color:#AABDCB"
   id="stop381" />
		<stop
   offset="1"
   style="stop-color:#05475C;stop-opacity:0"
   id="stop383" />
	</linearGradient>
	
		
	
		<linearGradient
   id="SVGID_00000114793001521345069760000012688220911513029271_"
   gradientUnits="userSpaceOnUse"
   x1="2853.4312"
   y1="7322.4062"
   x2="3055.7712"
   y2="7322.4062"
   gradientTransform="matrix(-0.5695,0.353,0.3978,0.9064,-404.8082,-7681.1133)">
		<stop
   offset="0"
   style="stop-color:#18F5B0"
   id="stop388" />
		<stop
   offset="1"
   style="stop-color:#05475C;stop-opacity:0"
   id="stop390" />
	</linearGradient>
	
		
	
		<linearGradient
   id="SVGID_00000101793563822561008850000017828752541773101460_"
   gradientUnits="userSpaceOnUse"
   x1="-3632.0457"
   y1="2732.1775"
   x2="-3521.8018"
   y2="2732.1775"
   gradientTransform="matrix(0.9175,-0.3976,-0.3976,-0.9175,5119.5,1036.7129)">
		<stop
   offset="0"
   style="stop-color:#18F5B0"
   id="stop395" />
		<stop
   offset="1"
   style="stop-color:#05475C;stop-opacity:0"
   id="stop397" />
	</linearGradient>
	
		
	
		<linearGradient
   id="SVGID_00000005262877684073597380000010621194368725479859_"
   gradientUnits="userSpaceOnUse"
   x1="2999.5742"
   y1="2594.3003"
   x2="3149.8562"
   y2="2594.3003"
   gradientTransform="matrix(0.7176,0.6964,0.6964,-0.7176,-3254.3862,-256.5119)">
		<stop
   offset="0"
   style="stop-color:#18F5B0"
   id="stop402" />
		<stop
   offset="1"
   style="stop-color:#05475C;stop-opacity:0"
   id="stop404" />
	</linearGradient>
	
		
	
	
		<radialGradient
   id="SVGID_00000156547371416816248460000008701248978914265787_"
   cx="1546.2078"
   cy="2461.6941"
   r="101.1555"
   gradientTransform="matrix(0.7061,0.7081,0.7081,-0.7061,-2715.7585,686.4619)"
   gradientUnits="userSpaceOnUse">
		<stop
   offset="0"
   style="stop-color:#18F5B0"
   id="stop461" />
		<stop
   offset="1"
   style="stop-color:#05475C;stop-opacity:0"
   id="stop463" />
	</radialGradient>
	
		
	
		<radialGradient
   id="SVGID_00000088820110689131631970000016974615839634350782_"
   cx="1536.3406"
   cy="2464.5693"
   r="101.1772"
   gradientTransform="matrix(0.7061,0.7081,0.7081,-0.7061,-2715.7585,686.4619)"
   gradientUnits="userSpaceOnUse">
		<stop
   offset="0"
   style="stop-color:#DAC9BA"
   id="stop468" />
		<stop
   offset="1"
   style="stop-color:#05475C;stop-opacity:0"
   id="stop470" />
	</radialGradient>
	
		
	
		<linearGradient
   id="SVGID_00000044135364056028867490000013352342717433132709_"
   gradientUnits="userSpaceOnUse"
   x1="13.9058"
   y1="3026.5183"
   x2="119.8558"
   y2="3026.5183"
   gradientTransform="matrix(0.5793,0.8151,0.8151,-0.5793,-2381.7061,1735.3982)">
		<stop
   offset="0"
   style="stop-color:#AABDCB"
   id="stop475" />
		<stop
   offset="1"
   style="stop-color:#05475C;stop-opacity:0"
   id="stop477" />
	</linearGradient>
	
		
	
		<linearGradient
   id="SVGID_00000036236221134814633260000016965928555056169387_"
   gradientUnits="userSpaceOnUse"
   x1="37.8576"
   y1="2991.6445"
   x2="148.2345"
   y2="2991.6445"
   gradientTransform="matrix(0.5793,0.8151,0.8151,-0.5793,-2381.7061,1735.3982)">
		<stop
   offset="0"
   style="stop-color:#AABDCB"
   id="stop482" />
		<stop
   offset="1"
   style="stop-color:#05475C;stop-opacity:0"
   id="stop484" />
	</linearGradient>
	
		
	
		<linearGradient
   id="SVGID_00000009550641336547583790000017373218642980522933_"
   gradientUnits="userSpaceOnUse"
   x1="-881.5312"
   y1="3581.4717"
   x2="-802.3509"
   y2="3581.4717"
   gradientTransform="matrix(0.7388,-0.6739,-0.6739,-0.7388,3110.4539,2115.021)">
		<stop
   offset="0"
   style="stop-color:#AABDCB"
   id="stop489" />
		<stop
   offset="1"
   style="stop-color:#05475C;stop-opacity:0"
   id="stop491" />
	</linearGradient>
	
		
	
		<linearGradient
   id="SVGID_00000152985017320084300840000003890438458294892732_"
   gradientUnits="userSpaceOnUse"
   x1="497.1732"
   y1="4584.0684"
   x2="621.413"
   y2="4584.0684"
   gradientTransform="matrix(-0.7081,0.7061,0.7061,0.7081,-2730.8821,-3565.8687)">
		<stop
   offset="0"
   style="stop-color:#18F5B0"
   id="stop496" />
		<stop
   offset="1"
   style="stop-color:#05475C;stop-opacity:0"
   id="stop498" />
	</linearGradient>
	
		
	
		<linearGradient
   id="SVGID_00000029018727124467353680000011377809280758515584_"
   gradientUnits="userSpaceOnUse"
   x1="1984.4906"
   y1="2367.3088"
   x2="2103.5405"
   y2="2367.3088"
   gradientTransform="matrix(0.5472,0.4832,0.7373,-0.6696,-2765.4619,626.8857)">
		<stop
   offset="0"
   style="stop-color:#18F5B0"
   id="stop503" />
		<stop
   offset="1"
   style="stop-color:#05475C;stop-opacity:0"
   id="stop505" />
	</linearGradient>
	
		
	
		<linearGradient
   id="SVGID_00000176020585398802190010000015234593053598650294_"
   gradientUnits="userSpaceOnUse"
   x1="-764.6882"
   y1="4162.4219"
   x2="-639.2191"
   y2="4162.4219"
   gradientTransform="matrix(-0.5793,-0.8151,-0.8151,0.5793,3049.3359,-2929.8384)">
		<stop
   offset="0"
   style="stop-color:#18F5B0"
   id="stop510" />
		<stop
   offset="1"
   style="stop-color:#05475C;stop-opacity:0"
   id="stop512" />
	</linearGradient>
	
		
<clipPath
   id="SVGID_29_">
				<use
   xlink:href="#SVGID_28_"
   overflow="visible"
   id="use214" />
			</clipPath><clipPath
   id="SVGID_29_-7">
				<use
   xlink:href="#SVGID_28_"
   overflow="visible"
   id="use214-2" />
			</clipPath><clipPath
   id="SVGID_29_-1">
				<use
   xlink:href="#SVGID_28_"
   overflow="visible"
   id="use214-5" />
			</clipPath><linearGradient
   id="SVGID_3_"
   gradientUnits="userSpaceOnUse"
   x1="65.379402"
   y1="600.37012"
   x2="397.18069"
   y2="1039.0232"
   gradientTransform="matrix(1.1562,0.0057,-0.0052,1.0692,155.8479,-821.5713)">
				<stop
   offset="0"
   style="stop-color:#689CAE"
   id="stop8" />
				<stop
   offset="0.1409"
   style="stop-color:#48839E"
   id="stop10" />
				<stop
   offset="0.3129"
   style="stop-color:#276A8E"
   id="stop12" />
				<stop
   offset="0.4567"
   style="stop-color:#135B84"
   id="stop14" />
				<stop
   offset="0.5538"
   style="stop-color:#0C5580"
   id="stop16" />
				<stop
   offset="0.5974"
   style="stop-color:#0A4E77"
   id="stop18" />
				<stop
   offset="0.7493"
   style="stop-color:#053A5E"
   id="stop20" />
				<stop
   offset="0.8878"
   style="stop-color:#012E4F"
   id="stop22" />
				<stop
   offset="1"
   style="stop-color:#002A4A"
   id="stop24" />
			</linearGradient><clipPath
   id="SVGID_2_">
				<use
   xlink:href="#SVGID_1_-7"
   overflow="visible"
   id="use5" />
			</clipPath><linearGradient
   id="SVGID_6_"
   gradientUnits="userSpaceOnUse"
   x1="406.00201"
   y1="1117.9785"
   x2="416.32831"
   y2="1337.5952"
   gradientTransform="matrix(-1.1562,-0.0057,0.0047,-0.9483,890.4326,1198.744)">
				<stop
   offset="0"
   style="stop-color:#00E3E0;stop-opacity:0"
   id="stop39" />
				<stop
   offset="0.1583"
   style="stop-color:#02E3E0;stop-opacity:0"
   id="stop41" />
				<stop
   offset="0.2153"
   style="stop-color:#09E4E0;stop-opacity:0"
   id="stop43" />
				<stop
   offset="0.256"
   style="stop-color:#14E6E0;stop-opacity:0"
   id="stop45" />
				<stop
   offset="0.2888"
   style="stop-color:#25E9E0;stop-opacity:0"
   id="stop47" />
				<stop
   offset="0.317"
   style="stop-color:#3BEDE0;stop-opacity:0"
   id="stop49" />
				<stop
   offset="0.3419"
   style="stop-color:#57F1E0;stop-opacity:0"
   id="stop51" />
				<stop
   offset="0.3644"
   style="stop-color:#77F6E0;stop-opacity:0"
   id="stop53" />
				<stop
   offset="0.3845"
   style="stop-color:#9BFCE0;stop-opacity:0"
   id="stop55" />
				<stop
   offset="0.3925"
   style="stop-color:#ACFFE0;stop-opacity:0"
   id="stop57" />
				<stop
   offset="0.6748"
   style="stop-color:#AEFEDE;stop-opacity:0.4647"
   id="stop59" />
				<stop
   offset="0.7764"
   style="stop-color:#B4FBD7;stop-opacity:0.632"
   id="stop61" />
				<stop
   offset="0.8489"
   style="stop-color:#C0F6CC;stop-opacity:0.7513"
   id="stop63" />
				<stop
   offset="0.9075"
   style="stop-color:#D0EEBB;stop-opacity:0.8478"
   id="stop65" />
				<stop
   offset="0.9571"
   style="stop-color:#E6E4A5;stop-opacity:0.9295"
   id="stop67" />
				<stop
   offset="1"
   style="stop-color:#FFD88B"
   id="stop69" />
			</linearGradient><clipPath
   id="SVGID_5_">
				<use
   xlink:href="#SVGID_4_"
   overflow="visible"
   id="use36" />
			</clipPath><radialGradient
   id="SVGID_9_"
   cx="418.41409"
   cy="-1831.6934"
   r="287.93881"
   gradientTransform="matrix(-0.8799,0.4752,-0.2991,-0.5537,627.892,-1135.22)"
   gradientUnits="userSpaceOnUse">
				<stop
   offset="0"
   style="stop-color:#FFD88B"
   id="stop84" />
				<stop
   offset="0.3109"
   style="stop-color:#ECE5A6;stop-opacity:0.7513"
   id="stop86" />
				<stop
   offset="1"
   style="stop-color:#C3FFE0;stop-opacity:0.2"
   id="stop88" />
			</radialGradient><clipPath
   id="SVGID_8_">
				<use
   xlink:href="#SVGID_7_"
   overflow="visible"
   id="use81" />
			</clipPath><radialGradient
   id="SVGID_12_"
   cx="416.2598"
   cy="-1620.9023"
   r="331.48111"
   gradientTransform="matrix(-0.8799,0.4752,-0.2991,-0.5537,627.892,-1135.22)"
   gradientUnits="userSpaceOnUse">
				<stop
   offset="0"
   style="stop-color:#FFD88B"
   id="stop103" />
				<stop
   offset="0.3109"
   style="stop-color:#ECE5A6;stop-opacity:0.7513"
   id="stop105" />
				<stop
   offset="1"
   style="stop-color:#C3FFE0;stop-opacity:0.2"
   id="stop107" />
			</radialGradient><clipPath
   id="SVGID_11_">
				<use
   xlink:href="#SVGID_10_"
   overflow="visible"
   id="use100" />
			</clipPath><radialGradient
   id="SVGID_15_"
   cx="394.2778"
   cy="-1690.124"
   r="382.7981"
   gradientTransform="matrix(-0.8799,0.4752,-0.2991,-0.5537,627.892,-1135.22)"
   gradientUnits="userSpaceOnUse">
				<stop
   offset="0"
   style="stop-color:#FFD88B"
   id="stop122" />
				<stop
   offset="0.3109"
   style="stop-color:#ECE5A6;stop-opacity:0.7513"
   id="stop124" />
				<stop
   offset="1"
   style="stop-color:#C3FFE0;stop-opacity:0.2"
   id="stop126" />
			</radialGradient><clipPath
   id="SVGID_14_">
				<use
   xlink:href="#SVGID_13_"
   overflow="visible"
   id="use119" />
			</clipPath><radialGradient
   id="SVGID_18_"
   cx="1221.3223"
   cy="-1005.3467"
   r="301.66129"
   gradientTransform="matrix(-0.1239,0.9923,-0.6245,-0.078,235.1364,-1317.3605)"
   gradientUnits="userSpaceOnUse">
				<stop
   offset="0"
   style="stop-color:#FFD88B"
   id="stop141" />
				<stop
   offset="0.3109"
   style="stop-color:#ECE5A6;stop-opacity:0.7513"
   id="stop143" />
				<stop
   offset="1"
   style="stop-color:#C3FFE0;stop-opacity:0.2"
   id="stop145" />
			</radialGradient><clipPath
   id="SVGID_17_">
				<use
   xlink:href="#SVGID_16_"
   overflow="visible"
   id="use138" />
			</clipPath><radialGradient
   id="SVGID_21_"
   cx="517.76862"
   cy="-749.47223"
   r="145.31979"
   gradientTransform="matrix(-0.8473,-0.5312,0.3343,-0.5332,760.6775,-113.4604)"
   gradientUnits="userSpaceOnUse">
				<stop
   offset="0"
   style="stop-color:#FFD88B"
   id="stop160" />
				<stop
   offset="0.3109"
   style="stop-color:#ECE5A6;stop-opacity:0.7513"
   id="stop162" />
				<stop
   offset="1"
   style="stop-color:#C3FFE0;stop-opacity:0.2"
   id="stop164" />
			</radialGradient><clipPath
   id="SVGID_20_">
				<use
   xlink:href="#SVGID_19_"
   overflow="visible"
   id="use157" />
			</clipPath><radialGradient
   id="SVGID_24_"
   cx="-1164.7837"
   cy="400.12701"
   r="107.56"
   gradientTransform="matrix(0.9666,-0.2565,0.1614,0.6083,1113.5325,-501.2651)"
   gradientUnits="userSpaceOnUse">
				<stop
   offset="0"
   style="stop-color:#FFD88B"
   id="stop179" />
				<stop
   offset="0.3109"
   style="stop-color:#ECE5A6;stop-opacity:0.7513"
   id="stop181" />
				<stop
   offset="1"
   style="stop-color:#C3FFE0;stop-opacity:0.2"
   id="stop183" />
			</radialGradient><clipPath
   id="SVGID_23_">
				<use
   xlink:href="#SVGID_22_"
   overflow="visible"
   id="use176" />
			</clipPath><radialGradient
   id="SVGID_27_"
   cx="-1197.2725"
   cy="277.88669"
   r="98.3843"
   gradientTransform="matrix(0.9666,-0.2565,0.1614,0.6083,1113.5325,-501.2651)"
   gradientUnits="userSpaceOnUse">
				<stop
   offset="0"
   style="stop-color:#FFD88B"
   id="stop198" />
				<stop
   offset="0.3109"
   style="stop-color:#ECE5A6;stop-opacity:0.7513"
   id="stop200" />
				<stop
   offset="1"
   style="stop-color:#C3FFE0;stop-opacity:0.2"
   id="stop202" />
			</radialGradient><clipPath
   id="SVGID_26_">
				<use
   xlink:href="#SVGID_25_"
   overflow="visible"
   id="use195" />
			</clipPath><clipPath
   id="SVGID_29_-3">
				<use
   xlink:href="#SVGID_28_"
   overflow="visible"
   id="use214-6" />
			</clipPath><rect
   id="SVGID_1_-7"
   x="0.653"
   width="800.30701"
   height="75"
   y="0" /><rect
   id="SVGID_4_"
   x="0.653"
   width="800.30701"
   height="75"
   y="0" /><rect
   id="SVGID_7_"
   x="0.653"
   width="800.30701"
   height="75"
   y="0" /><rect
   id="SVGID_10_"
   x="0.653"
   width="800.30701"
   height="75"
   y="0" /><rect
   id="SVGID_13_"
   x="0.653"
   width="800.30701"
   height="75"
   y="0" /><rect
   id="SVGID_16_"
   x="0.653"
   width="800.30701"
   height="75"
   y="0" /><rect
   id="SVGID_19_"
   x="0.653"
   width="800.30701"
   height="75"
   y="0" /><rect
   id="SVGID_22_"
   x="0.653"
   width="800.30701"
   height="75"
   y="0" /><rect
   id="SVGID_25_"
   x="0.653"
   width="800.30701"
   height="75"
   y="0" />
	
	
	
	
	
	
	
	
	
	
<clipPath
   id="SVGID_2_-5">
				<use
   xlink:href="#SVGID_1_-8"
   overflow="visible"
   id="use3233" />
			</clipPath><clipPath
   id="SVGID_5_-4">
				<use
   xlink:href="#SVGID_4_-5"
   overflow="visible"
   id="use3264" />
			</clipPath><radialGradient
   id="SVGID_9_-8"
   cx="418.41409"
   cy="-1831.6934"
   r="287.93881"
   gradientTransform="matrix(-0.8799,0.4752,-0.2991,-0.5537,627.892,-1135.22)"
   gradientUnits="userSpaceOnUse">
				<stop
   offset="0"
   style="stop-color:#FFD88B"
   id="stop3312" />
				<stop
   offset="0.3109"
   style="stop-color:#ECE5A6;stop-opacity:0.7513"
   id="stop3314" />
				<stop
   offset="1"
   style="stop-color:#C3FFE0;stop-opacity:0.2"
   id="stop3316" />
			</radialGradient><clipPath
   id="SVGID_8_-1">
				<use
   xlink:href="#SVGID_7_-0"
   overflow="visible"
   id="use3309" />
			</clipPath><radialGradient
   id="SVGID_12_-2"
   cx="416.2598"
   cy="-1620.9023"
   r="331.48111"
   gradientTransform="matrix(-0.8799,0.4752,-0.2991,-0.5537,627.892,-1135.22)"
   gradientUnits="userSpaceOnUse">
				<stop
   offset="0"
   style="stop-color:#FFD88B"
   id="stop3331" />
				<stop
   offset="0.3109"
   style="stop-color:#ECE5A6;stop-opacity:0.7513"
   id="stop3333" />
				<stop
   offset="1"
   style="stop-color:#C3FFE0;stop-opacity:0.2"
   id="stop3335" />
			</radialGradient><clipPath
   id="SVGID_11_-8">
				<use
   xlink:href="#SVGID_10_-6"
   overflow="visible"
   id="use3328" />
			</clipPath><radialGradient
   id="SVGID_15_-9"
   cx="394.2778"
   cy="-1690.124"
   r="382.7981"
   gradientTransform="matrix(-0.8799,0.4752,-0.2991,-0.5537,627.892,-1135.22)"
   gradientUnits="userSpaceOnUse">
				<stop
   offset="0"
   style="stop-color:#FFD88B"
   id="stop3350" />
				<stop
   offset="0.3109"
   style="stop-color:#ECE5A6;stop-opacity:0.7513"
   id="stop3352" />
				<stop
   offset="1"
   style="stop-color:#C3FFE0;stop-opacity:0.2"
   id="stop3354" />
			</radialGradient><clipPath
   id="SVGID_14_-3">
				<use
   xlink:href="#SVGID_13_-4"
   overflow="visible"
   id="use3347" />
			</clipPath><radialGradient
   id="SVGID_18_-6"
   cx="1221.3223"
   cy="-1005.3467"
   r="301.66129"
   gradientTransform="matrix(-0.1239,0.9923,-0.6245,-0.078,235.1364,-1317.3605)"
   gradientUnits="userSpaceOnUse">
				<stop
   offset="0"
   style="stop-color:#FFD88B"
   id="stop3369" />
				<stop
   offset="0.3109"
   style="stop-color:#ECE5A6;stop-opacity:0.7513"
   id="stop3371" />
				<stop
   offset="1"
   style="stop-color:#C3FFE0;stop-opacity:0.2"
   id="stop3373" />
			</radialGradient><clipPath
   id="SVGID_17_-8">
				<use
   xlink:href="#SVGID_16_-6"
   overflow="visible"
   id="use3366" />
			</clipPath><radialGradient
   id="SVGID_21_-0"
   cx="517.76862"
   cy="-749.47223"
   r="145.31979"
   gradientTransform="matrix(-0.8473,-0.5312,0.3343,-0.5332,760.6775,-113.4604)"
   gradientUnits="userSpaceOnUse">
				<stop
   offset="0"
   style="stop-color:#FFD88B"
   id="stop3388" />
				<stop
   offset="0.3109"
   style="stop-color:#ECE5A6;stop-opacity:0.7513"
   id="stop3390" />
				<stop
   offset="1"
   style="stop-color:#C3FFE0;stop-opacity:0.2"
   id="stop3392" />
			</radialGradient><clipPath
   id="SVGID_20_-2">
				<use
   xlink:href="#SVGID_19_-2"
   overflow="visible"
   id="use3385" />
			</clipPath><radialGradient
   id="SVGID_24_-1"
   cx="-1164.7837"
   cy="400.12701"
   r="107.56"
   gradientTransform="matrix(0.9666,-0.2565,0.1614,0.6083,1113.5325,-501.2651)"
   gradientUnits="userSpaceOnUse">
				<stop
   offset="0"
   style="stop-color:#FFD88B"
   id="stop3407" />
				<stop
   offset="0.3109"
   style="stop-color:#ECE5A6;stop-opacity:0.7513"
   id="stop3409" />
				<stop
   offset="1"
   style="stop-color:#C3FFE0;stop-opacity:0.2"
   id="stop3411" />
			</radialGradient><clipPath
   id="SVGID_23_-0">
				<use
   xlink:href="#SVGID_22_-5"
   overflow="visible"
   id="use3404" />
			</clipPath><radialGradient
   id="SVGID_27_-5"
   cx="-1197.2725"
   cy="277.88669"
   r="98.3843"
   gradientTransform="matrix(0.9666,-0.2565,0.1614,0.6083,1113.5325,-501.2651)"
   gradientUnits="userSpaceOnUse">
				<stop
   offset="0"
   style="stop-color:#FFD88B"
   id="stop3426" />
				<stop
   offset="0.3109"
   style="stop-color:#ECE5A6;stop-opacity:0.7513"
   id="stop3428" />
				<stop
   offset="1"
   style="stop-color:#C3FFE0;stop-opacity:0.2"
   id="stop3430" />
			</radialGradient><clipPath
   id="SVGID_26_-1">
				<use
   xlink:href="#SVGID_25_-8"
   overflow="visible"
   id="use3423" />
			</clipPath><clipPath
   id="SVGID_29_-10">
				<use
   xlink:href="#SVGID_28_"
   overflow="visible"
   id="use3442" />
			</clipPath><rect
   id="SVGID_1_-8"
   x="0.653"
   width="800.30701"
   height="75"
   y="0" /><rect
   id="SVGID_4_-5"
   x="0.653"
   width="800.30701"
   height="75"
   y="0" /><rect
   id="SVGID_7_-0"
   x="0.653"
   width="800.30701"
   height="75"
   y="0" /><rect
   id="SVGID_10_-6"
   x="0.653"
   width="800.30701"
   height="75"
   y="0" /><rect
   id="SVGID_13_-4"
   x="0.653"
   width="800.30701"
   height="75"
   y="0" /><rect
   id="SVGID_16_-6"
   x="0.653"
   width="800.30701"
   height="75"
   y="0" /><rect
   id="SVGID_19_-2"
   x="0.653"
   width="800.30701"
   height="75"
   y="0" /><rect
   id="SVGID_22_-5"
   x="0.653"
   width="800.30701"
   height="75"
   y="0" /><rect
   id="SVGID_25_-8"
   x="0.653"
   width="800.30701"
   height="75"
   y="0" /><rect
   id="SVGID_28_"
   x="0.653"
   width="800.30701"
   height="75"
   y="0" /></defs><sodipodi:namedview
   id="namedview520"
   pagecolor="#ffffff"
   bordercolor="#666666"
   borderopacity="1.0"
   inkscape:showpageshadow="2"
   inkscape:pageopacity="0.0"
   inkscape:pagecheckerboard="0"
   inkscape:deskcolor="#d1d1d1"
   showgrid="false"
   inkscape:zoom="0.83375"
   inkscape:cx="509.14543"
   inkscape:cy="-68.365817"
   inkscape:window-width="1440"
   inkscape:window-height="847"
   inkscape:window-x="0"
   inkscape:window-y="25"
   inkscape:window-maximized="1"
   inkscape:current-layer="Calque_1" />
<style
   type="text/css"
   id="style336">
	.st0{clip-path:url(#SVGID_00000176747955814712251520000014606278098923058842_);fill:#05475C;}
	
		.st1{opacity:0.34;clip-path:url(#SVGID_00000176747955814712251520000014606278098923058842_);fill:url(#SVGID_00000099621477021080510250000002582641036678012817_);enable-background:new    ;}
	
		.st2{opacity:0.34;clip-path:url(#SVGID_00000176747955814712251520000014606278098923058842_);fill:url(#SVGID_00000176747406361787387170000015761111210610681509_);enable-background:new    ;}
	
		.st3{opacity:0.34;clip-path:url(#SVGID_00000176747955814712251520000014606278098923058842_);fill:url(#SVGID_00000033329244004512996900000013243327169966169018_);enable-background:new    ;}
	
		.st4{opacity:0.34;clip-path:url(#SVGID_00000176747955814712251520000014606278098923058842_);fill:url(#SVGID_00000117675807213375773470000005094905702622337690_);enable-background:new    ;}
	
		.st5{opacity:0.34;clip-path:url(#SVGID_00000176747955814712251520000014606278098923058842_);fill:url(#SVGID_00000158746027364634461380000011922165764021418656_);enable-background:new    ;}
	
		.st6{opacity:0.12;clip-path:url(#SVGID_00000176747955814712251520000014606278098923058842_);fill:url(#SVGID_00000100384100768724670170000001233789854608802206_);enable-background:new    ;}
	
		.st7{opacity:0.12;clip-path:url(#SVGID_00000176747955814712251520000014606278098923058842_);fill:url(#SVGID_00000110461380823889971960000007274746536321227419_);enable-background:new    ;}
	
		.st8{opacity:0.12;clip-path:url(#SVGID_00000176747955814712251520000014606278098923058842_);fill:url(#SVGID_00000100341722431482918990000005478594969535573636_);enable-background:new    ;}
	
		.st9{opacity:0.12;clip-path:url(#SVGID_00000176747955814712251520000014606278098923058842_);fill:url(#SVGID_00000083777194994129568140000017087958799540142991_);enable-background:new    ;}
	.st10{clip-path:url(#SVGID_00000176747955814712251520000014606278098923058842_);}
	.st11{opacity:0.71;}
	.st12{fill:#FFFFFF;}
	
		.st13{opacity:0.34;clip-path:url(#SVGID_00000176747955814712251520000014606278098923058842_);fill:url(#SVGID_00000074400341208793605370000012174806839408145314_);enable-background:new    ;}
	
		.st14{opacity:0.34;clip-path:url(#SVGID_00000176747955814712251520000014606278098923058842_);fill:url(#SVGID_00000098219720637930000600000009928390349720436885_);enable-background:new    ;}
	
		.st15{opacity:0.34;clip-path:url(#SVGID_00000176747955814712251520000014606278098923058842_);fill:url(#SVGID_00000116937149360633862470000001160074651967636646_);enable-background:new    ;}
	
		.st16{opacity:0.34;clip-path:url(#SVGID_00000176747955814712251520000014606278098923058842_);fill:url(#SVGID_00000060719713440949263370000016948524068403969714_);enable-background:new    ;}
	
		.st17{opacity:0.34;clip-path:url(#SVGID_00000176747955814712251520000014606278098923058842_);fill:url(#SVGID_00000177448891725088861610000013304015694649935252_);enable-background:new    ;}
	
		.st18{opacity:0.34;clip-path:url(#SVGID_00000176747955814712251520000014606278098923058842_);fill:url(#SVGID_00000021811563229464596480000001480378420555818682_);enable-background:new    ;}
	
		.st19{opacity:0.34;clip-path:url(#SVGID_00000176747955814712251520000014606278098923058842_);fill:url(#SVGID_00000132795543768779915990000001804999065504003727_);enable-background:new    ;}
	
		.st20{opacity:0.34;clip-path:url(#SVGID_00000176747955814712251520000014606278098923058842_);fill:url(#SVGID_00000033353556226302245190000013900921071067515548_);enable-background:new    ;}
</style>
<g
   id="g1126"><rect
     y="-6.6999998"
     style="fill:#05475c"
     width="800"
     height="92.800003"
     clip-path="url(#SVGID_00000081623338355527563770000002533362940068844987_)"
     id="rect344"
     x="0" /><polygon
     style="opacity:0.34;fill:url(#SVGID_00000038405185503701051430000004349822176931472308_);enable-background:new"
     points="2063.8,-395.2 388.5,1031.8 -225.9,310.5 1449.4,-1116.6 "
     clip-path="url(#SVGID_00000081623338355527563770000002533362940068844987_)"
     id="polygon351" /><g
     id="g305-9"
     transform="translate(20)">
		<g
   clip-path="url(#SVGID_29_-1)"
   id="g301-8">
				<g
   id="g237-4">
					<path
   fill="#ffffff"
   d="M 234.245,22.212 H 252.6 v 5.571 h -11.441 v 4.377 h 10.496 v 5.572 h -10.496 v 4.375 h 11.392 v 5.571 h -18.306 z"
   id="path217-8" />
					<path
   fill="#ffffff"
   d="m 256.119,28.58 h 6.517 v 3.631 h 0.198 c 0.796,-2.388 2.823,-3.88 5.473,-3.88 2.686,0 4.824,1.542 5.223,3.88 h 0.199 c 0.646,-2.338 2.935,-3.88 5.77,-3.88 3.656,0 6.169,2.55 6.169,6.467 v 12.884 h -6.865 V 36.539 c 0,-1.666 -0.92,-2.688 -2.338,-2.688 -1.417,0 -2.288,1.021 -2.288,2.688 v 11.143 h -6.566 V 36.539 c 0,-1.666 -0.92,-2.688 -2.338,-2.688 -1.417,0 -2.288,1.021 -2.288,2.688 v 11.143 h -6.864 V 28.58 Z"
   id="path219-1" />
					<path
   fill="#ffffff"
   d="m 289.03,28.58 h 6.517 v 3.631 h 0.198 c 0.796,-2.388 2.823,-3.88 5.472,-3.88 2.687,0 4.825,1.542 5.224,3.88 h 0.199 c 0.646,-2.338 2.935,-3.88 5.77,-3.88 3.656,0 6.169,2.55 6.169,6.467 v 12.884 h -6.865 V 36.539 c 0,-1.666 -0.92,-2.688 -2.338,-2.688 -1.417,0 -2.288,1.021 -2.288,2.688 v 11.143 h -6.566 V 36.539 c 0,-1.666 -0.92,-2.688 -2.338,-2.688 -1.417,0 -2.288,1.021 -2.288,2.688 v 11.143 h -6.864 V 28.58 Z"
   id="path221-0" />
					<path
   fill="#ffffff"
   d="m 321.046,42.408 c 0,-4.191 3.071,-5.783 7.014,-6.069 3.209,-0.234 4.428,-0.584 4.428,-1.689 v -0.052 c 0,-0.993 -0.846,-1.541 -2.04,-1.541 -1.306,0 -2.176,0.561 -2.338,1.74 h -6.317 c 0.236,-3.479 3.047,-6.467 8.755,-6.467 5.459,0 8.805,2.736 8.805,6.268 v 13.084 h -6.417 v -2.688 h -0.149 c -1.156,2.141 -3.034,2.985 -5.521,2.985 -3.658,10e-4 -6.22,-1.766 -6.22,-5.571 z m 11.491,-1.492 v -1.592 c -0.722,0.299 -1.642,0.521 -2.736,0.696 -1.592,0.248 -2.288,1.007 -2.288,1.987 0,1.07 0.82,1.645 1.989,1.645 1.555,0 3.035,-0.996 3.035,-2.736 z"
   id="path223-3" />
					<path
   fill="#ffffff"
   d="m 342.523,22.212 h 6.864 v 9.7 h 0.1 c 0.746,-1.939 2.537,-3.582 5.372,-3.582 3.781,0 7.462,2.886 7.462,9.8 0,6.615 -3.433,9.8 -7.512,9.8 -2.686,0 -4.526,-1.442 -5.322,-3.384 h -0.149 v 3.136 h -6.814 z m 9.75,20.444 c 1.89,0 2.984,-1.691 2.984,-4.525 0,-2.835 -1.095,-4.526 -2.984,-4.526 -1.891,0 -3.034,1.69 -3.034,4.526 -10e-4,2.785 1.143,4.525 3.034,4.525 z"
   id="path225-0" />
					<path
   fill="#ffffff"
   d="m 377.577,28.58 h 6.865 v 19.102 h -6.517 v -3.631 h -0.199 c -0.833,2.437 -3.021,3.879 -5.87,3.879 -4.017,0 -6.652,-2.982 -6.665,-7.162 V 28.58 h 6.864 v 10.745 c 0.013,1.891 1.008,3.034 2.736,3.034 1.703,0 2.798,-1.146 2.785,-3.034 z"
   id="path227-44" />
					<path
   fill="#ffffff"
   d="m 394.776,47.682 h -6.864 V 28.58 h 6.518 v 3.631 h 0.197 c 0.834,-2.412 3.061,-3.88 5.87,-3.88 4.053,0 6.678,3.01 6.667,7.163 v 12.188 h -6.866 V 36.936 c 0.014,-1.89 -1.007,-3.032 -2.734,-3.032 -1.704,0 -2.773,1.145 -2.786,3.032 z"
   id="path229-4" />
					<path
   fill="#ffffff"
   d="m 421.924,33.555 h -3.283 v 7.982 c 0,0.797 0.397,1.195 1.293,1.195 0.41,0 1.082,-0.138 1.345,-0.199 l 0.994,4.824 c -0.621,0.188 -1.777,0.51 -3.332,0.598 -4.738,0.262 -7.213,-1.766 -7.164,-5.771 v -8.629 h -2.438 V 28.58 h 2.438 v -4.576 h 6.865 v 4.576 h 3.281 v 4.975 z"
   id="path231-4" />
					<path
   fill="#ffffff"
   d="m 437.088,28.58 h 6.864 v 19.102 h -6.519 v -3.631 h -0.198 c -0.832,2.437 -3.021,3.879 -5.869,3.879 -4.019,0 -6.651,-2.982 -6.666,-7.162 V 28.58 h 6.865 v 10.745 c 0.012,1.891 1.008,3.034 2.735,3.034 1.703,0 2.797,-1.146 2.785,-3.034 z m -9.703,-5.124 c 0,-1.592 1.345,-2.886 3.035,-2.886 1.644,0 2.983,1.294 2.983,2.886 0,1.592 -1.342,2.886 -2.983,2.886 -1.691,-10e-4 -3.035,-1.295 -3.035,-2.886 z m 7.912,0 c 0,-1.592 1.344,-2.886 3.035,-2.886 1.641,0 2.983,1.294 2.983,2.886 0,1.592 -1.345,2.886 -2.983,2.886 -1.693,-10e-4 -3.035,-1.295 -3.035,-2.886 z"
   id="path233-7" />
					<path
   fill="#ffffff"
   d="m 458.563,34.797 c -0.101,-1.169 -1.231,-1.89 -2.589,-1.89 -1.182,0 -2.163,0.445 -2.139,1.243 -0.024,0.56 0.387,1.082 1.84,1.343 l 3.881,0.696 c 3.904,0.709 5.796,2.351 5.82,5.172 -0.024,4.093 -3.918,6.666 -9.203,6.666 -5.845,0 -9.228,-2.601 -9.601,-6.517 h 6.813 c 0.187,1.219 1.281,1.89 2.836,1.89 1.257,0 2.164,-0.446 2.188,-1.241 -0.022,-0.725 -0.694,-1.119 -2.188,-1.395 l -3.383,-0.598 c -3.894,-0.684 -5.847,-2.611 -5.819,-5.621 -0.025,-3.979 3.346,-6.219 8.805,-6.219 5.521,0 8.879,2.426 9.054,6.467 h -6.315 z"
   id="path235-6" />
				</g>
				<g
   id="g267-3">
					<path
   fill="#ffffff"
   d="m 523.317,35.85 c 0.021,-1.141 0.021,-1.979 -0.021,-3.319 -0.041,-1.301 -0.221,-1.54 -0.562,-1.92 0.62,0.039 1.479,0.039 2.121,0.039 0.479,0 0.96,-0.021 1.44,-0.021 0.479,0 0.938,-0.021 1.42,-0.021 1.061,0 2.238,0.118 3.16,0.659 1.739,1.021 2.42,3.183 2.42,6.021 0,5.041 -1.881,7.462 -6.36,7.462 -0.521,0 -1.12,-0.021 -1.761,-0.021 -0.84,0 -1.881,0 -2.5,0.021 0.619,-0.74 0.619,-0.92 0.64,-4.301 z m 2.202,2.98 c 0,0.84 0,3.221 0.06,3.621 0.063,0.561 0.28,0.778 1.28,0.778 2.78,0 4.142,-1.399 4.142,-5.521 0,-3.562 -0.721,-5.603 -3.922,-5.603 -0.5,0 -1.04,0.041 -1.5,0.079 -0.04,0.98 -0.06,1.24 -0.06,3.882 z"
   id="path239-1" />
					<path
   fill="#ffffff"
   d="m 542.139,39.59 h -5.32 c 0,0.98 0.04,3.822 3.16,3.822 1.199,0 1.738,-0.342 2.16,-0.603 -0.119,0.621 -0.221,1.08 -0.199,1.802 -0.36,0.1 -1.021,0.301 -2.381,0.301 -3.063,0 -4.883,-1.603 -4.883,-5.662 0,-0.959 0,-5.48 4.082,-5.48 2.959,0 3.422,2.302 3.422,4.642 z m -1.94,-1.379 c 0.04,-1.421 -0.08,-3.141 -1.641,-3.141 -1.42,0 -1.762,1.479 -1.78,3.141 z"
   id="path241-7" />
					<path
   fill="#ffffff"
   d="m 543.778,36.53 c 0,-4.303 0,-5.621 -0.78,-5.941 0.86,-0.08 1.66,-0.18 2.961,-0.78 -0.158,1.82 -0.181,5.382 -0.181,6.401 0.3,-0.819 0.86,-2.42 2.78,-2.42 0.961,0 1.859,0.479 2.421,1.42 0.58,1 0.659,2.58 0.659,3.3 0,1.181 -0.199,2.74 -0.779,3.9 -1.221,2.502 -3.48,2.502 -4.262,2.502 -1.221,0 -2.239,-0.18 -3.062,-0.5 0.24,-0.642 0.24,-1.48 0.24,-2.961 z m 3.921,-0.921 c -0.181,0 -1.12,0.021 -1.541,1.439 -0.14,0.439 -0.318,1.341 -0.318,3.063 0,1.438 0,2.68 0.039,3.398 0.262,0.061 0.66,0.119 0.979,0.119 2.319,0 2.661,-2.5 2.661,-4.36 10e-4,-1.558 -0.3,-3.659 -1.82,-3.659 z"
   id="path243-5" />
					<path
   fill="#ffffff"
   d="m 556.039,44.791 c -0.398,-0.059 -0.681,-0.1 -1.261,-0.1 -0.64,0 -1.08,0.041 -1.54,0.1 0.2,-0.379 0.28,-0.562 0.34,-1.859 0.08,-1.78 0.102,-6.541 -0.04,-7.541 -0.1,-0.761 -0.278,-0.881 -0.561,-1.08 1.641,-0.159 2.101,-0.279 2.86,-0.641 -0.16,0.88 -0.182,1.32 -0.182,2.66 -0.037,6.9 -0.057,7.641 0.384,8.461 z m -1.461,-11.922 c -0.72,0 -1.119,-0.521 -1.119,-1.28 0,-0.56 0.18,-1.359 1.142,-1.359 0.899,0 1.079,0.682 1.079,1.279 0.018,0.72 -0.221,1.36 -1.102,1.36 z"
   id="path245-9" />
					<path
   fill="#ffffff"
   d="m 561.719,37.93 c 0.539,0 0.858,0.04 1.238,0.062 0,-1.563 0,-2.66 -1.66,-2.66 -1.039,0 -2.061,0.359 -2.841,1.04 -0.18,-0.86 -0.38,-1.24 -0.62,-1.681 0.58,-0.302 1.74,-0.899 3.723,-0.899 3.001,0 3.4,1.5 3.4,3.021 l -0.021,4.082 c 0,1.062 0,1.819 0.04,2.58 0.061,0.78 0.181,0.979 0.399,1.319 -0.341,-0.021 -0.66,-0.06 -1,-0.06 -0.602,0 -0.961,0.039 -1.32,0.06 -0.062,-0.699 -0.079,-1.24 -0.062,-2.119 -0.38,0.84 -1,2.199 -2.841,2.199 -0.159,0 -0.66,0 -1.16,-0.22 -1.119,-0.541 -1.5,-1.802 -1.5,-3.063 0.004,-2.681 1.684,-3.661 4.225,-3.661 z m 0.22,1.201 c -0.762,0 -2.441,0.14 -2.441,2.021 0,0.979 0.262,1.979 1.461,1.979 0.521,0 1.221,-0.26 1.643,-1.16 0.34,-0.698 0.357,-1.58 0.398,-2.84 z"
   id="path247-6" />
					<path
   fill="#ffffff"
   d="m 574.52,42.811 c 0.021,0.682 0.021,1.4 0.301,1.98 -0.439,-0.039 -0.7,-0.1 -1.521,-0.1 -0.479,0 -0.739,0.041 -1.119,0.1 0.078,-0.26 0.119,-0.359 0.158,-0.699 0.062,-0.461 0.102,-2 0.102,-2.541 v -2.16 c 0,-0.939 0,-2.301 -0.061,-2.78 -0.041,-0.34 -0.142,-1.261 -1.302,-1.261 -1.141,0 -1.521,0.841 -1.659,1.521 -0.16,0.7 -0.16,1.46 -0.16,4.421 0.021,2.561 0.021,2.801 0.221,3.5 -0.34,-0.039 -0.76,-0.08 -1.36,-0.08 -0.479,0 -0.8,0.021 -1.2,0.08 0.143,-0.32 0.223,-0.48 0.262,-1.6 0.041,-1.102 0.121,-6.502 -0.062,-7.782 -0.1,-0.78 -0.3,-0.96 -0.521,-1.16 1.621,-0.08 2.141,-0.341 2.642,-0.601 v 2.12 c 0.239,-0.62 0.739,-2.002 2.74,-2.002 2.5,0 2.521,1.82 2.54,3.021 v 6.023 z"
   id="path249-2" />
					<path
   fill="#ffffff"
   d="m 588.758,43.932 -0.102,0.82 h -6.74 l 0.063,-3.881 -0.063,-8.9 h 6.723 l 0.08,0.12 -0.121,0.82 -2.979,-0.04 -2.64,0.02 -0.04,4.82 2.5,0.021 2.14,-0.021 0.08,0.1 -0.1,0.82 -4.62,-0.02 -0.021,2.198 0.039,3.041 2.58,0.021 3.143,-0.062 z"
   id="path251-1" />
					<path
   fill="#ffffff"
   d="m 596.898,40.791 0.04,2.221 c 0,0.347 0.046,0.59 0.14,0.73 0.094,0.139 0.26,0.209 0.5,0.209 0.229,0 0.475,-0.066 0.74,-0.199 l 0.141,0.1 -0.121,0.66 c -0.317,0.199 -0.658,0.308 -1.02,0.32 -0.76,-0.027 -1.174,-0.5 -1.24,-1.42 h -0.1 c -0.414,0.412 -0.813,0.731 -1.2,0.959 -0.388,0.227 -0.819,0.387 -1.3,0.479 -1.2,0 -2.135,-0.399 -2.801,-1.198 -0.666,-0.802 -1,-1.92 -1,-3.361 0,-1.52 0.381,-2.696 1.141,-3.53 0.76,-0.833 1.826,-1.25 3.2,-1.25 0.573,0 1.22,0.087 1.938,0.262 v -4.961 l 1.021,-0.101 z m -5.379,-3.499 c -0.574,0.667 -0.86,1.621 -0.86,2.86 0,1.198 0.247,2.134 0.74,2.8 0.492,0.668 1.173,1 2.04,1 0.467,0 0.905,-0.117 1.317,-0.352 0.414,-0.231 0.82,-0.604 1.223,-1.107 l 0.02,-1.621 -0.039,-4.141 c -0.707,-0.293 -1.388,-0.438 -2.041,-0.438 -1.028,-10e-4 -1.827,0.332 -2.4,0.999 z"
   id="path253-7" />
					<path
   fill="#ffffff"
   d="m 601.768,31.971 c 0.111,0.12 0.171,0.28 0.171,0.48 0,0.213 -0.062,0.383 -0.183,0.51 -0.119,0.127 -0.285,0.189 -0.5,0.189 -0.213,0 -0.377,-0.058 -0.488,-0.17 -0.113,-0.112 -0.17,-0.276 -0.17,-0.489 0,-0.214 0.061,-0.384 0.181,-0.511 0.12,-0.128 0.286,-0.189 0.5,-0.189 0.212,0.001 0.375,0.061 0.489,0.18 z m -0.969,8.881 -0.021,-5.118 1,-0.121 -0.021,5.18 0.021,3.961 h -1.021 z"
   id="path255-8" />
					<path
   fill="#ffffff"
   d="m 609.379,43.492 0.119,0.1 -0.1,0.719 c -0.667,0.35 -1.27,0.527 -1.801,0.541 -0.693,-0.079 -1.207,-0.32 -1.539,-0.729 -0.334,-0.406 -0.5,-0.99 -0.5,-1.75 l 0.039,-1.799 -0.021,-4.161 h -1.239 l -0.08,-0.103 0.08,-0.64 h 1.239 v -1.819 l 0.88,-0.358 0.12,0.1 -0.021,2.08 h 2.898 l 0.08,0.1 -0.08,0.643 h -2.898 l -0.062,5.86 c 0,0.573 0.113,0.995 0.341,1.27 0.228,0.273 0.572,0.41 1.039,0.41 0.471,-0.003 0.971,-0.157 1.506,-0.464 z"
   id="path257-5" />
					<path
   fill="#ffffff"
   d="m 612.607,31.971 c 0.113,0.12 0.171,0.28 0.171,0.48 0,0.213 -0.062,0.383 -0.181,0.51 -0.12,0.127 -0.287,0.189 -0.5,0.189 -0.215,0 -0.377,-0.058 -0.49,-0.17 -0.113,-0.112 -0.17,-0.276 -0.17,-0.489 0,-0.214 0.061,-0.384 0.181,-0.511 0.12,-0.128 0.286,-0.189 0.5,-0.189 0.213,0.001 0.376,0.061 0.489,0.18 z m -0.97,8.881 -0.021,-5.118 1,-0.121 -0.021,5.18 0.021,3.961 h -1.021 z"
   id="path259-7" />
					<path
   fill="#ffffff"
   d="m 622.228,36.721 c 0.674,0.81 1.011,1.933 1.011,3.371 0,1.506 -0.354,2.681 -1.061,3.521 -0.707,0.841 -1.688,1.261 -2.939,1.261 -1.2,0 -2.134,-0.402 -2.8,-1.209 -0.667,-0.808 -1,-1.924 -1,-3.354 0,-1.506 0.35,-2.682 1.05,-3.527 0.7,-0.847 1.678,-1.271 2.93,-1.271 1.199,-0.002 2.136,0.402 2.809,1.208 z m -5.03,0.571 c -0.521,0.667 -0.78,1.606 -0.78,2.819 0,1.278 0.25,2.265 0.75,2.948 0.5,0.688 1.203,1.031 2.11,1.031 0.946,0 1.681,-0.33 2.199,-0.99 0.521,-0.659 0.778,-1.596 0.778,-2.811 0,-1.279 -0.252,-2.266 -0.76,-2.959 -0.507,-0.693 -1.214,-1.04 -2.119,-1.04 -0.932,0.002 -1.659,0.335 -2.178,1.002 z"
   id="path261-4" />
					<path
   fill="#ffffff"
   d="m 631.559,38.451 c 0.013,-0.642 -0.146,-1.137 -0.471,-1.49 -0.326,-0.354 -0.789,-0.529 -1.392,-0.529 -0.479,0 -0.974,0.145 -1.479,0.431 -0.508,0.287 -0.994,0.696 -1.459,1.229 l -0.021,2.699 0.061,3.961 h -1.039 l 0.061,-3.9 -0.04,-5.118 0.979,-0.121 v 1.461 h 0.101 c 0.453,-0.44 0.923,-0.793 1.41,-1.063 0.485,-0.267 0.956,-0.427 1.409,-0.479 0.92,0 1.627,0.234 2.119,0.71 0.494,0.474 0.732,1.144 0.722,2.01 l -0.021,2.559 0.04,3.941 h -1.04 z"
   id="path263-1" />
					
				</g>
				<g
   id="g297-8">
					<g
   id="whhite-5">
						<path
   fill="#ffffff"
   d="m 197.828,9.922 c 4.035,0 7.307,3.271 7.307,7.307 0,1.893 -0.727,3.609 -1.906,4.906 1.541,1.822 2.795,3.851 3.736,6.051 1.268,2.97 1.91,6.121 1.91,9.367 0,3.248 -0.643,6.4 -1.91,9.369 -0.84,1.967 -1.934,3.791 -3.256,5.458 1.465,1.337 2.391,3.254 2.391,5.395 0,4.034 -3.271,7.306 -7.307,7.306 -3.086,0 -5.721,-1.918 -6.789,-4.624 -2.369,0.75 -4.834,1.133 -7.357,1.133 -3.266,0 -6.434,-0.635 -9.42,-1.886 -2.885,-1.208 -5.475,-2.938 -7.697,-5.14 -2.229,-2.207 -3.979,-4.776 -5.201,-7.642 -0.275,-0.645 -0.516,-1.3 -0.732,-1.961 -0.414,0.073 -0.84,0.119 -1.275,0.119 -4.035,0 -7.307,-3.271 -7.307,-7.307 0,-4.036 3.271,-7.307 7.307,-7.307 0.389,0 0.768,0.039 1.141,0.1 0.246,-0.806 0.533,-1.599 0.865,-2.377 1.223,-2.86 2.969,-5.433 5.193,-7.638 2.223,-2.202 4.811,-3.933 7.691,-5.143 2.984,-1.252 6.15,-1.89 9.412,-1.892 h 0.023 c 2.203,0 4.361,0.295 6.449,0.867 1.107,-2.619 3.704,-4.461 6.732,-4.461 m -13.182,43.805 c 9.025,0 16.369,-7.254 16.369,-16.174 0,-8.917 -7.344,-16.172 -16.369,-16.172 h -0.02 c -9.014,0.008 -16.348,7.264 -16.348,16.172 0.001,8.918 7.343,16.174 16.368,16.174 M 197.828,7.922 c -3.165,0 -6.056,1.59 -7.757,4.162 -1.783,-0.374 -3.601,-0.563 -5.424,-0.563 -3.554,0.002 -6.98,0.689 -10.209,2.045 -3.121,1.312 -5.922,3.184 -8.326,5.565 -2.406,2.385 -4.298,5.167 -5.625,8.271 -0.149,0.35 -0.291,0.705 -0.426,1.065 -5.012,0.14 -9.047,4.258 -9.047,9.302 0,5.103 4.127,9.258 9.218,9.308 0.084,0.213 0.17,0.422 0.257,0.628 1.325,3.102 3.22,5.886 5.633,8.273 2.406,2.385 5.209,4.256 8.332,5.563 3.233,1.354 6.662,2.041 10.192,2.041 2.144,0 4.267,-0.258 6.331,-0.769 1.688,2.635 4.595,4.26 7.815,4.26 5.132,0 9.307,-4.176 9.307,-9.308 0,-1.986 -0.648,-3.92 -1.816,-5.507 0.995,-1.436 1.84,-2.963 2.521,-4.559 1.374,-3.218 2.071,-6.636 2.071,-10.154 0,-3.518 -0.697,-6.937 -2.071,-10.153 -0.806,-1.884 -1.83,-3.661 -3.053,-5.303 0.9,-1.458 1.383,-3.138 1.383,-4.868 0,-5.125 -4.174,-9.299 -9.306,-9.299 z m -13.182,43.805 c -7.922,0 -14.367,-6.356 -14.367,-14.174 0,-7.808 6.437,-14.164 14.35,-14.172 7.941,0 14.387,6.357 14.387,14.172 -0.001,7.815 -6.446,14.174 -14.37,14.174 z"
   id="path269-9" />
					</g>
					<circle
   id="white_x5F_path-7"
   fill="#ffffff"
   cx="184.315"
   cy="37.695"
   r="17.698" />
					<g
   id="path1134-3-6-3-7-3_7_-5">
						<circle
   fill="#0c5580"
   cx="160.32001"
   cy="37.773998"
   r="7.3060002"
   id="circle273-3" />
					</g>
					<g
   id="path1134-3-6-3-7-5_7_-8">
						<circle
   fill="#0c5580"
   cx="197.828"
   cy="17.228001"
   r="7.3060002"
   id="circle276-8" />
					</g>
					<g
   id="path1134-3-6-3-7_7_-3">
						<circle
   fill="#0c5580"
   cx="198.793"
   cy="57.772999"
   r="7.3049998"
   id="circle279-1" />
					</g>
					<g
   id="path1132_7_-89">
						<path
   fill="#0c5580"
   d="m 184.646,61.587 v 0 c -3.266,0 -6.434,-0.635 -9.42,-1.886 -2.885,-1.208 -5.475,-2.938 -7.697,-5.142 -2.229,-2.204 -3.979,-4.774 -5.201,-7.64 -1.268,-2.969 -1.91,-6.121 -1.91,-9.369 0,-3.245 0.641,-6.396 1.908,-9.361 1.223,-2.86 2.969,-5.433 5.193,-7.638 2.223,-2.202 4.811,-3.933 7.691,-5.143 2.984,-1.252 6.15,-1.89 9.412,-1.892 h 0.023 c 3.264,0 6.434,0.633 9.42,1.885 2.883,1.207 5.475,2.938 7.699,5.142 2.227,2.205 3.977,4.775 5.199,7.641 1.268,2.968 1.91,6.119 1.91,9.366 0,3.248 -0.643,6.4 -1.91,9.369 -1.223,2.863 -2.973,5.436 -5.199,7.64 -2.225,2.203 -4.816,3.934 -7.699,5.142 -2.985,1.251 -6.155,1.886 -9.419,1.886 z m -0.019,-40.206 c -9.014,0.008 -16.348,7.265 -16.348,16.172 0,8.918 7.342,16.174 16.367,16.174 9.025,0 16.369,-7.254 16.369,-16.174 0,-8.917 -7.344,-16.172 -16.369,-16.172 z"
   id="path282-6" />
					</g>
					<g
   id="path1134_7_-4">
						<circle
   fill="#ffd700"
   cx="197.828"
   cy="17.228001"
   r="5.1919999"
   id="circle285-3" />
					</g>
					<g
   id="path1134-3_7_-3">
						<circle
   fill="#ffd700"
   cx="198.793"
   cy="57.772999"
   r="5.1929998"
   id="circle288-3" />
					</g>
					<g
   id="path1134-3-6_7_-8">
						<circle
   fill="#ffd700"
   cx="160.32001"
   cy="37.773998"
   r="5.1929998"
   id="circle291-6" />
					</g>
					<g
   id="path1897_7_-0">
						<path
   fill="#ffd700"
   d="m 183.9,50.282 c -2.793,-0.13 -5.447,-1.164 -7.602,-2.962 -1.664,-1.392 -2.967,-3.218 -3.727,-5.228 -0.172,-0.457 -0.354,-1.035 -0.453,-1.446 -0.021,-0.094 -0.043,-0.178 -0.047,-0.186 -0.004,-0.013 0.607,-0.017 3.029,-0.017 h 3.035 l 0.09,0.186 c 0.248,0.502 0.596,1.026 0.965,1.456 0.176,0.207 0.535,0.563 0.742,0.74 0.699,0.595 1.486,1.037 2.355,1.325 1.666,0.552 3.486,0.442 5.1,-0.3 0.99,-0.456 1.898,-1.186 2.578,-2.064 1.291,-1.674 1.746,-3.849 1.238,-5.906 -0.254,-1.032 -0.736,-1.979 -1.428,-2.807 -0.164,-0.196 -0.512,-0.554 -0.707,-0.727 -0.607,-0.541 -1.281,-0.955 -2.043,-1.261 -0.936,-0.374 -2.018,-0.546 -2.998,-0.479 -0.939,0.063 -1.77,0.282 -2.594,0.684 -0.748,0.361 -1.361,0.802 -1.941,1.395 -0.531,0.546 -0.928,1.102 -1.266,1.78 l -0.096,0.19 h -3.023 c -1.664,0 -3.029,-0.004 -3.033,-0.008 -0.008,-0.011 0.098,-0.429 0.18,-0.703 0.65,-2.209 1.887,-4.199 3.568,-5.752 2.084,-1.92 4.705,-3.084 7.518,-3.341 0.422,-0.038 0.777,-0.051 1.318,-0.043 0.531,0.009 0.803,0.023 1.258,0.075 3.873,0.438 7.338,2.632 9.398,5.957 1.574,2.539 2.201,5.561 1.773,8.536 -0.447,3.112 -2.051,5.967 -4.488,7.987 -1.455,1.205 -3.184,2.08 -5.025,2.54 -1.184,0.305 -2.467,0.434 -3.674,0.379 z"
   id="path294-4" />
					</g>
				</g>
				<line
   fill="none"
   stroke="#ffffff"
   stroke-miterlimit="10"
   x1="493.65302"
   y1="24"
   x2="493.65302"
   y2="52"
   id="line299-8" />
			</g>
	</g><text
     xml:space="preserve"
     style="font-style:normal;font-variant:normal;font-weight:normal;font-stretch:normal;font-size:18.4408px;line-height:1.25;font-family:Alegreya;-inkscape-font-specification:Alegreya;fill:#e6e6e6;fill-opacity:1;stroke:none;stroke-width:0.461021"
     x="660.35693"
     y="44.441151"
     id="text4453"
     inkscape:export-filename="/home/emmabuntus/Travail/EmmaDE5_64/emmabuntus_de_4/Ecrans/Fond_ecran_demarrage/theme_ice-main/SVG/text4453.png"
     inkscape:export-xdpi="96"
     inkscape:export-ydpi="96"><tspan
       sodipodi:role="line"
       id="tspan4451"
       x="660.35693"
       y="44.441151"
       style="fill:#e6e6e6;fill-opacity:1;stroke-width:0.461021">5</tspan></text><circle
     style="opacity:0.34;fill:url(#SVGID_00000102533721317829508000000017731438737069566599_);enable-background:new"
     cx="736.40002"
     cy="52.099998"
     r="79.400002"
     clip-path="url(#SVGID_00000081623338355527563770000002533362940068844987_)"
     id="circle358" /><polygon
     style="opacity:0.34;fill:url(#SVGID_00000090259190451313607400000017358106186077161397_);enable-background:new"
     points="458.3,108.5 447,81.7 506.7,31.9 569.9,91.2 "
     clip-path="url(#SVGID_00000081623338355527563770000002533362940068844987_)"
     id="polygon365" /><polygon
     style="opacity:0.34;fill:url(#SVGID_00000174580598149875607440000002879095366165991075_);enable-background:new"
     points="564.6,94.2 431.9,80.6 457,57.5 538.8,-2.2 "
     clip-path="url(#SVGID_00000081623338355527563770000002533362940068844987_)"
     id="polygon372" /><polygon
     style="opacity:0.34;fill:url(#SVGID_00000099633733585330950970000000851255604092087176_);enable-background:new"
     points="527.4,-88.5 619.2,-56.2 698.3,17 633.2,34 "
     clip-path="url(#SVGID_00000081623338355527563770000002533362940068844987_)"
     id="polygon379" /><polygon
     style="opacity:0.12;fill:url(#SVGID_00000001635249674185316710000016720107718524880030_);enable-background:new"
     points="754.9,15.5 772.6,-88.1 849.2,-1.5 841,45.8 "
     clip-path="url(#SVGID_00000081623338355527563770000002533362940068844987_)"
     id="polygon386" /><polygon
     style="opacity:0.12;fill:url(#SVGID_00000114793001521345069760000012688220911513029271_);enable-background:new"
     points="761.5,-34.8 862.9,-98.1 834.2,13.6 799,89 "
     clip-path="url(#SVGID_00000081623338355527563770000002533362940068844987_)"
     id="polygon393" /><polygon
     style="opacity:0.12;fill:url(#SVGID_00000101793563822561008850000017828752541773101460_);enable-background:new"
     points="735.9,55.5 734.6,-153.6 766.4,-110.1 843,25.4 "
     clip-path="url(#SVGID_00000081623338355527563770000002533362940068844987_)"
     id="polygon400" /><polygon
     style="opacity:0.12;fill:url(#SVGID_00000005262877684073597380000010621194368725479859_);enable-background:new"
     points="747.5,-73.3 769.9,119.4 716.1,21.5 "
     clip-path="url(#SVGID_00000081623338355527563770000002533362940068844987_)"
     id="polygon407" /><path
     style="opacity:0.34;fill:url(#SVGID_00000156547371416816248460000008701248978914265787_);enable-background:new"
     d="M 92.2,146.7 C 37.4,129.5 6.8,71.1 24.1,16.2 41.3,-38.6 99.7,-69.2 154.5,-52 c 54.8,17.2 85.4,75.6 68.2,130.4"
     clip-path="url(#SVGID_00000081623338355527563770000002533362940068844987_)"
     id="path466" /><path
     style="opacity:0.34;fill:url(#SVGID_00000088820110689131631970000016974615839634350782_);enable-background:new"
     d="M 87.3,137.7 C 32.4,120.5 1.9,62 19.1,7.2 36.3,-47.6 94.7,-78.2 149.6,-61 204.4,-43.8 235,14.6 217.8,69.4"
     clip-path="url(#SVGID_00000081623338355527563770000002533362940068844987_)"
     id="path473" /><polygon
     style="opacity:0.34;fill:url(#SVGID_00000044135364056028867490000013352342717433132709_);enable-background:new"
     points="152.6,-0.9 153.7,80.5 98.6,67.1 56.5,19.6 "
     clip-path="url(#SVGID_00000081623338355527563770000002533362940068844987_)"
     id="polygon480" /><polyline
     style="opacity:0.34;fill:url(#SVGID_00000036236221134814633260000016965928555056169387_);enable-background:new"
     points="   25.8,96.8 100.8,17.5 152.6,-0.9 137.4,126.9  "
     clip-path="url(#SVGID_00000081623338355527563770000002533362940068844987_)"
     id="polyline487" /><polyline
     style="opacity:0.34;fill:url(#SVGID_00000009550641336547583790000017373218642980522933_);enable-background:new"
     points="   84.6,106 56.5,19.6 23.3,5 67.1,-3.9 81.4,-15 137.2,54.4 84.6,106  "
     clip-path="url(#SVGID_00000081623338355527563770000002533362940068844987_)"
     id="polyline494" /><polyline
     style="opacity:0.34;fill:url(#SVGID_00000152985017320084300840000003890438458294892732_);enable-background:new"
     points="   71.6,124.6 94.3,53.6 159.5,36.8 146.5,75.5 71.6,124.6  "
     clip-path="url(#SVGID_00000081623338355527563770000002533362940068844987_)"
     id="polyline501" /><polygon
     style="opacity:0.34;fill:url(#SVGID_00000029018727124467353680000011377809280758515584_);enable-background:new"
     points="67.1,-3.9 106.7,-10.7 149.1,15.2 95.9,86.1 "
     clip-path="url(#SVGID_00000081623338355527563770000002533362940068844987_)"
     id="polygon508" /><polyline
     style="opacity:0.34;fill:url(#SVGID_00000176020585398802190010000015234593053598650294_);enable-background:new"
     points="   25.8,96.8 23.3,5 94.3,53.6 125.5,45.5 71.6,124.6  "
     clip-path="url(#SVGID_00000081623338355527563770000002533362940068844987_)"
     id="polyline515" /></g>
</svg>
