<?xml version="1.0" encoding="UTF-8" standalone="no"?>
<!-- Created with Inkscape (http://www.inkscape.org/) -->

<svg
   xmlns:dc="http://purl.org/dc/elements/1.1/"
   xmlns:cc="http://creativecommons.org/ns#"
   xmlns:rdf="http://www.w3.org/1999/02/22-rdf-syntax-ns#"
   xmlns:svg="http://www.w3.org/2000/svg"
   xmlns="http://www.w3.org/2000/svg"
   xmlns:xlink="http://www.w3.org/1999/xlink"
   xmlns:sodipodi="http://sodipodi.sourceforge.net/DTD/sodipodi-0.dtd"
   xmlns:inkscape="http://www.inkscape.org/namespaces/inkscape"
   width="1600"
   height="900"
   viewBox="0 0 423.33332 238.12501"
   version="1.1"
   id="svg8"
   inkscape:version="0.92.1 r15371"
   sodipodi:docname="Emmabuntus-Wallpaper-01-1600x900.svg"
   inkscape:export-filename="/home/odysseus/Documents/Odysseus Libre/Mon Art Libre 2017/Emmausbuntu/emmaus01-1600x900.png"
   inkscape:export-xdpi="96"
   inkscape:export-ydpi="96">
  <title
     id="title4511">Fond d'écran pour Emmabuntus</title>
  <defs
     id="defs2">
    <linearGradient
       inkscape:collect="always"
       id="linearGradient4929">
      <stop
         style="stop-color:#161650;stop-opacity:1;"
         offset="0"
         id="stop4925" />
      <stop
         style="stop-color:#161650;stop-opacity:0;"
         offset="1"
         id="stop4927" />
    </linearGradient>
    <radialGradient
       inkscape:collect="always"
       xlink:href="#linearGradient4929"
       id="radialGradient4931"
       cx="170.27827"
       cy="162.06247"
       fx="170.27827"
       fy="162.06247"
       r="62.36607"
       gradientUnits="userSpaceOnUse"
       gradientTransform="matrix(0.76363636,0,0,0.76363636,38.168716,38.305675)" />
  </defs>
  <sodipodi:namedview
     id="base"
     pagecolor="#ffffff"
     bordercolor="#666666"
     borderopacity="1.0"
     inkscape:pageopacity="0.0"
     inkscape:pageshadow="2"
     inkscape:zoom="4.7343009"
     inkscape:cx="1521.3463"
     inkscape:cy="172.19928"
     inkscape:document-units="mm"
     inkscape:current-layer="layer1"
     showgrid="false"
     units="px"
     inkscape:window-width="1280"
     inkscape:window-height="927"
     inkscape:window-x="1680"
     inkscape:window-y="27"
     inkscape:window-maximized="1"
     inkscape:showpageshadow="false"
     borderlayer="false"
     fit-margin-top="0"
     fit-margin-left="0"
     fit-margin-right="0"
     fit-margin-bottom="0"
     showborder="false" />
  <metadata
     id="metadata5">
    <rdf:RDF>
      <cc:Work
         rdf:about="">
        <dc:format>image/svg+xml</dc:format>
        <dc:type
           rdf:resource="http://purl.org/dc/dcmitype/StillImage" />
        <dc:title>Fond d'écran pour Emmabuntus</dc:title>
        <cc:license
           rdf:resource="http://artlibre.org/licence/lal" />
        <dc:date />
        <dc:creator>
          <cc:Agent>
            <dc:title>Odysseus Libre</dc:title>
          </cc:Agent>
        </dc:creator>
      </cc:Work>
      <cc:License
         rdf:about="http://artlibre.org/licence/lal">
        <cc:permits
           rdf:resource="http://creativecommons.org/ns#Reproduction" />
        <cc:permits
           rdf:resource="http://creativecommons.org/ns#Distribution" />
        <cc:permits
           rdf:resource="http://creativecommons.org/ns#DerivativeWorks" />
        <cc:requires
           rdf:resource="http://creativecommons.org/ns#ShareAlike" />
        <cc:requires
           rdf:resource="http://creativecommons.org/ns#Notice" />
        <cc:requires
           rdf:resource="http://creativecommons.org/ns#Attribution" />
      </cc:License>
    </rdf:RDF>
  </metadata>
  <g
     inkscape:label="fond"
     inkscape:groupmode="layer"
     id="layer1"
     transform="translate(1.1339285,-62.276756)">
    <rect
       style="fill:#0b0b28;fill-opacity:1;stroke:none;stroke-width:22.67998695;stroke-miterlimit:4;stroke-dasharray:none;stroke-opacity:1"
       id="rect4921"
       width="423.33334"
       height="238.125"
       x="-1.1339285"
       y="62.276756" />
  </g>
  <g
     inkscape:groupmode="layer"
     id="layer2"
     inkscape:label="logo"
     transform="translate(1.1339285,-36.210106)">
    <g
       id="g4554"
       transform="translate(42.333341,19.276787)">
      <circle
         r="47.625"
         cy="162.06247"
         cx="168.1994"
         id="path4923"
         style="fill:url(#radialGradient4931);fill-opacity:1;stroke:none;stroke-width:16.79999924;stroke-miterlimit:4;stroke-dasharray:none;stroke-opacity:1"
         transform="translate(0,-26.06665)" />
      <g
         transform="translate(-2.0788716,-6.2247302e-6)"
         id="g5134">
        <path
           style="fill:#212178;fill-opacity:1;stroke:none;stroke-width:22.2838707;stroke-miterlimit:4;stroke-dasharray:none;stroke-opacity:1"
           d="m 171.80858,118.28418 a 17.548349,17.548349 0 0 0 -17.54828,17.54829 17.548349,17.548349 0 0 0 17.54828,17.54828 17.548349,17.548349 0 0 0 17.54829,-17.54828 17.548349,17.548349 0 0 0 -17.54829,-17.54829 z m 0,5.36505 a 12.183249,12.183249 0 0 1 12.18324,12.18324 12.183249,12.183249 0 0 1 -12.18324,12.18323 12.183249,12.183249 0 0 1 -12.18323,-12.18323 12.183249,12.183249 0 0 1 12.18323,-12.18324 z"
           id="path5092"
           inkscape:connector-curvature="0" />
        <g
           id="g4671"
           transform="matrix(0.19045733,0,0,0.19045733,138.5809,110.07781)">
          <circle
             r="21.00968"
             cy="134.86874"
             cx="73.613228"
             id="path4488"
             style="fill:#d4aa00;fill-opacity:1;stroke:none;stroke-width:10;stroke-miterlimit:4;stroke-dasharray:none;stroke-opacity:1" />
          <rect
             transform="rotate(17.52613)"
             ry="2.0684953"
             y="28.647593"
             x="105.80254"
             height="51.850277"
             width="5.3453903"
             id="rect4600-7"
             style="fill:#d4aa00;fill-opacity:1;stroke:none;stroke-width:28.44329643;stroke-miterlimit:4;stroke-dasharray:none;stroke-opacity:1" />
          <rect
             transform="matrix(-0.95357971,0.30114072,0.30114072,0.95357971,0,0)"
             ry="2.0684953"
             y="176.50999"
             x="-29.984787"
             height="51.850273"
             width="5.3453903"
             id="rect4600-7-5"
             style="fill:#d4aa00;fill-opacity:1;stroke:none;stroke-width:28.44329643;stroke-miterlimit:4;stroke-dasharray:none;stroke-opacity:1" />
          <rect
             transform="rotate(-47.08969)"
             ry="2.0684953"
             y="67.82547"
             x="-53.692364"
             height="51.850273"
             width="5.3453903"
             id="rect4600-7-3"
             style="fill:#d4aa00;fill-opacity:1;stroke:none;stroke-width:28.44329643;stroke-miterlimit:4;stroke-dasharray:none;stroke-opacity:1" />
          <rect
             transform="matrix(0.68085266,0.73242041,0.73242041,-0.68085266,0,0)"
             ry="2.0684953"
             y="-116.05782"
             x="144.11824"
             height="51.850269"
             width="5.3453903"
             id="rect4600-7-3-5"
             style="fill:#d4aa00;fill-opacity:1;stroke:none;stroke-width:28.44329643;stroke-miterlimit:4;stroke-dasharray:none;stroke-opacity:1" />
        </g>
        <g
           transform="matrix(-0.12543758,0.14331576,-0.14331576,-0.12543758,213.14803,127.37763)"
           id="g4671-0">
          <circle
             r="21.00968"
             cy="134.86874"
             cx="73.613228"
             id="path4488-9"
             style="fill:#d4aa00;fill-opacity:1;stroke:none;stroke-width:10;stroke-miterlimit:4;stroke-dasharray:none;stroke-opacity:1" />
          <rect
             transform="rotate(17.52613)"
             ry="2.0684953"
             y="28.647593"
             x="105.80254"
             height="51.850277"
             width="5.3453903"
             id="rect4600-7-36"
             style="fill:#d4aa00;fill-opacity:1;stroke:none;stroke-width:28.44329643;stroke-miterlimit:4;stroke-dasharray:none;stroke-opacity:1" />
          <rect
             transform="matrix(-0.95357971,0.30114072,0.30114072,0.95357971,0,0)"
             ry="2.0684953"
             y="176.50999"
             x="-29.984787"
             height="51.850273"
             width="5.3453903"
             id="rect4600-7-5-0"
             style="fill:#d4aa00;fill-opacity:1;stroke:none;stroke-width:28.44329643;stroke-miterlimit:4;stroke-dasharray:none;stroke-opacity:1" />
          <rect
             transform="rotate(-47.08969)"
             ry="2.0684953"
             y="67.82547"
             x="-53.692364"
             height="51.850273"
             width="5.3453903"
             id="rect4600-7-3-6"
             style="fill:#d4aa00;fill-opacity:1;stroke:none;stroke-width:28.44329643;stroke-miterlimit:4;stroke-dasharray:none;stroke-opacity:1" />
          <rect
             transform="matrix(0.68085266,0.73242041,0.73242041,-0.68085266,0,0)"
             ry="2.0684953"
             y="-116.05782"
             x="144.11824"
             height="51.850269"
             width="5.3453903"
             id="rect4600-7-3-5-2"
             style="fill:#d4aa00;fill-opacity:1;stroke:none;stroke-width:28.44329643;stroke-miterlimit:4;stroke-dasharray:none;stroke-opacity:1" />
        </g>
        <g
           transform="matrix(-0.11560277,-0.15136048,0.15136048,-0.11560277,171.74822,177.7811)"
           id="g4671-0-6">
          <circle
             r="21.00968"
             cy="134.86874"
             cx="73.613228"
             id="path4488-9-1"
             style="fill:#d4aa00;fill-opacity:1;stroke:none;stroke-width:10;stroke-miterlimit:4;stroke-dasharray:none;stroke-opacity:1" />
          <rect
             transform="rotate(17.52613)"
             ry="2.0684953"
             y="28.647593"
             x="105.80254"
             height="51.850277"
             width="5.3453903"
             id="rect4600-7-36-8"
             style="fill:#d4aa00;fill-opacity:1;stroke:none;stroke-width:28.44329643;stroke-miterlimit:4;stroke-dasharray:none;stroke-opacity:1" />
          <rect
             transform="matrix(-0.95357971,0.30114072,0.30114072,0.95357971,0,0)"
             ry="2.0684953"
             y="176.50999"
             x="-29.984787"
             height="51.850273"
             width="5.3453903"
             id="rect4600-7-5-0-7"
             style="fill:#d4aa00;fill-opacity:1;stroke:none;stroke-width:28.44329643;stroke-miterlimit:4;stroke-dasharray:none;stroke-opacity:1" />
          <rect
             transform="rotate(-47.08969)"
             ry="2.0684953"
             y="67.82547"
             x="-53.692364"
             height="51.850273"
             width="5.3453903"
             id="rect4600-7-3-6-9"
             style="fill:#d4aa00;fill-opacity:1;stroke:none;stroke-width:28.44329643;stroke-miterlimit:4;stroke-dasharray:none;stroke-opacity:1" />
          <rect
             transform="matrix(0.68085266,0.73242041,0.73242041,-0.68085266,0,0)"
             ry="2.0684953"
             y="-116.05782"
             x="144.11824"
             height="51.850269"
             width="5.3453903"
             id="rect4600-7-3-5-2-2"
             style="fill:#d4aa00;fill-opacity:1;stroke:none;stroke-width:28.44329643;stroke-miterlimit:4;stroke-dasharray:none;stroke-opacity:1" />
        </g>
        <path
           style="fill:#d4aa00;fill-opacity:1;stroke:none;stroke-width:4.93408966;stroke-miterlimit:4;stroke-dasharray:none;stroke-opacity:1"
           d="m 171.53228,126.76192 a 9.0705284,9.0705284 0 0 0 -8.51794,5.97641 h 4.16991 a 5.340591,5.340591 0 0 1 4.34803,-2.24645 5.340591,5.340591 0 0 1 5.3406,5.34059 5.340591,5.340591 0 0 1 -5.3406,5.34059 5.340591,5.340591 0 0 1 -4.34479,-2.24646 h -4.16955 a 9.0705284,9.0705284 0 0 0 8.51434,5.97641 9.0705284,9.0705284 0 0 0 9.07055,-9.07054 9.0705284,9.0705284 0 0 0 -9.07055,-9.07055 z"
           id="path4773"
           inkscape:connector-curvature="0" />
      </g>
    </g>
  </g>
  <g
     inkscape:groupmode="layer"
     id="layer3"
     inkscape:label="reflets"
     transform="translate(1.1339285,-36.210106)" />
</svg>
